<?xml version="1.0" encoding="utf-8"?>
<!-- Generator: Adobe Illustrator 19.1.0, SVG Export Plug-In . SVG Version: 6.00 Build 0)  -->
<svg version="1.1" id="Layer_1" xmlns="http://www.w3.org/2000/svg" xmlns:xlink="http://www.w3.org/1999/xlink" x="0px" y="0px"
	 viewBox="-143 208.2 325 376.8" style="enable-background:new -143 208.2 325 376.8;" xml:space="preserve">
<style type="text/css">
	.st0{fill:#1EBAD6;}
	.st1{fill:#4BCFE4;}
	.st2{fill:none;}
</style>
<polygon class="st0" points="803.7,1007.6 803.7,1004.7 801.2,1006.1 "/>
<polygon class="st0" points="803.2,1008 803.2,1075.5 803.7,1075.5 803.7,1007.6 803.2,1007.6 "/>
<path class="st1" d="M288.5,689.3"/>
<polygon class="st0" points="70.6,302.5 -238.3,165.9 -200.2,511.7 -196.2,508.7 "/>
<g>
	<polygon class="st1" points="223.6,370.2 41.7,289.7 -200.2,476.7 -203.8,479.4 -182.6,671.6 251.5,623.8 	"/>
</g>
<line class="st2" x1="288.4" y1="458.6" x2="288.4" y2="458.6"/>
<path class="st1" d="M288.5,458.8"/>
</svg>
